HW4. T-tests and ANOVA
…
## Parsed with column specification:
## cols(
##   ParticipantID = col_character(),
##   TypeOfQuestion = col_character(),
##   TypeOfStimuli = col_character(),
##   WordOrder = col_character(),
##   ResponseAcceptabilityJudgement = col_character(),
##   RT = col_double()
## )

see also reading key for the data

mono_socio

## # A tibble: 180 x 4
##    ParticipantID                  TypeOfQuestion QuestionCategory Responce      
##    <chr>                          <chr>          <chr>            <chr>         
##  1 2bc93481d25426f259a0f1a3d5d3e Form           age              58            
##  2 2bc93481d25426f259a0f1a3d5d3e Form           country1         Nicosia       
##  3 2bc93481d25426f259a0f1a3d5d3e Form           country2         Kaimakli,Nico
##  4 2bc93481d25426f259a0f1a3d5d3e Form           education        College       
##  5 2bc93481d25426f259a0f1a3d5d3e Form           handedness       right         
##  6 2bc93481d25426f259a0f1a3d5d3e Form           sex              female        
##  7 4b4c9debd4aedeb1fd3dfc9f1cab3 Form           age              24            
##  8 4b4c9debd4aedeb1fd3dfc9f1cab3 Form           country1         Nicosia       
##  9 4b4c9debd4aedeb1fd3dfc9f1cab3 Form           country2         Nicosia       
## 10 4b4c9debd4aedeb1fd3dfc9f1cab3 Form           education        UniversityDeg
## #  with 170 more rows
…
mono_socio %>% filter(QuestionCategory == 'handedness') %>% count(Responce)

## # A tibble: 2 x 2
##   Responce     n
##   <chr>    <int>
## 1 left         2
## 2 right       28

Compare you overview with that reported in Table 1 of the article. Sometimes replication data provided by authors does not allow on to reproduce their results. Lets look at another dataframe, mono, that contains results of experiment 1.

mono

## # A tibble: 7,560 x 6
##    ParticipantID  TypeOfQuestion  TypeOfStimuli WordOrder ResponseAccepta    RT
##    <chr>          <chr>           <chr>         <chr>     <chr>            <dbl>
##  1 00e0b159cf5b9 AcceptabilityJ Size-Nationa Congruent Correct           1591
##  2 00e0b159cf5b9 AcceptabilityJ Size-Nationa Incongru Correct           5504
##  3 00e0b159cf5b9 AcceptabilityJ Size-Nationa Congruent Correct           1333
##  4 00e0b159cf5b9 AcceptabilityJ Size-Nationa Incongru Correct           1543
##  5 00e0b159cf5b9 AcceptabilityJ Size-Nationa Congruent Correct           1815
##  6 00e0b159cf5b9 AcceptabilityJ Size-Nationa Incongru Correct           3059
##  7 00e0b159cf5b9 AcceptabilityJ Shape-Color   Congruent Correct           1700
##  8 00e0b159cf5b9 AcceptabilityJ Shape-Color   Incongru Correct           2745
##  9 00e0b159cf5b9 AcceptabilityJ Shape-Color   Congruent Correct           3237
## 10 00e0b159cf5b9 AcceptabilityJ Shape-Color   Incongru Correct           2911
## #  with 7,550 more rows
…
mean_rtlog_long <- mono1 %>%
  group_by(ParticipantID, WordOrder) %>%
  summarise(mean=mean(RT_log))

mean_rtlog_long

## # A tibble: 280 x 3
## # Groups:   ParticipantID [140]
##    ParticipantID                    WordOrder    mean
##    <fct>                            <fct>       <dbl>
##  1 00e0b159cf5b9abcc73b92506d8b1c38 Congruent    3.24
##  2 00e0b159cf5b9abcc73b92506d8b1c38 Incongruent  3.47
##  3 021a49cde484f8fa18439f026ec99459 Congruent    3.22
##  4 021a49cde484f8fa18439f026ec99459 Incongruent  3.21
##  5 02810ff2a65eae2b3e54ac57d906309d Congruent    3.46
##  6 02810ff2a65eae2b3e54ac57d906309d Incongruent  3.36
##  7 037c50e80288a89b13f4c77e0b825789 Congruent    3.55
##  8 037c50e80288a89b13f4c77e0b825789 Incongruent  3.55
##  9 054635a48143f6d4dd711cbb00b9f6fd Congruent    3.22
## 10 054635a48143f6d4dd711cbb00b9f6fd Incongruent  3.18
## #  with 270 more rows
2.2. Pivoting

Use pivot_wider to spread values of RTlog in mean_rtlog_long into two columns: Congruent and Incongruent. Put new dataframe in variable mean_rtlog. It should look like

# A tibble: 140 x 3
   ParticipantID                    Congruent Incongruent
   <fct>                                <dbl>       <dbl>
 1 00e0b159cf5b9abcc73b92506d8b1c38      3.24        3.47
 2 021a49cde484f8fa18439f026ec99459      3.22        3.21
 3 02810ff2a65eae2b3e54ac57d906309d      3.46        3.36

mean_rtlog <- mean_rtlog_long %>% pivot_wider(names_from = WordOrder, values_from = mean)
mean_rtlog

## # A tibble: 140 x 3
## # Groups:   ParticipantID [140]
##    ParticipantID                    Congruent Incongruent
##    <fct>                                <dbl>       <dbl>
##  1 00e0b159cf5b9abcc73b92506d8b1c38      3.24        3.47
##  2 021a49cde484f8fa18439f026ec99459      3.22        3.21
##  3 02810ff2a65eae2b3e54ac57d906309d      3.46        3.36
##  4 037c50e80288a89b13f4c77e0b825789      3.55        3.55
##  5 054635a48143f6d4dd711cbb00b9f6fd      3.22        3.18
##  6 066f8885734d3b91f905df8c23195a27      3.39        3.38
##  7 086805c265966ff2a53482f3b6c1328c      3.37        3.42
##  8 0912f84f2fb81492f8e7a4c5c02d33a9      3.18        3.21
##  9 09b1c9e98227331746533f60cc9b2c2d      3.33        3.43
## 10 0a14b7b4f101746c9cd29fbaa746ba5e      3.48        3.45
## #  with 130 more rows
…
incong_rtlog <- mono1 %>%
  filter(WordOrder == 'Incongruent') %>%
  group_by(ParticipantID, TypeOfStimuli) %>%
  summarise(mean=mean(RT_log))

incong_rtlog

## # A tibble: 420 x 3
## # Groups:   ParticipantID [140]
##    ParticipantID                    TypeOfStimuli               mean
##    <fct>                            <fct>                      <dbl>
##  1 00e0b159cf5b9abcc73b92506d8b1c38 Shape-Color                 3.49
##  2 00e0b159cf5b9abcc73b92506d8b1c38 Size-Nationality            3.47
##  3 00e0b159cf5b9abcc73b92506d8b1c38 SubjectiveComment-Material  3.44
##  4 021a49cde484f8fa18439f026ec99459 Shape-Color                 3.20
##  5 021a49cde484f8fa18439f026ec99459 Size-Nationality            3.23
##  6 021a49cde484f8fa18439f026ec99459 SubjectiveComment-Material  3.21
##  7 02810ff2a65eae2b3e54ac57d906309d Shape-Color                 3.48
##  8 02810ff2a65eae2b3e54ac57d906309d Size-Nationality            3.31
##  9 02810ff2a65eae2b3e54ac57d906309d SubjectiveComment-Material  3.29
## 10 037c50e80288a89b13f4c77e0b825789 Shape-Color                 3.67
## #  with 410 more rows
…
diamonds

## # A tibble: 53,940 x 10
##    carat cut       color clarity depth table price     x     y     z
##    <dbl> <ord>     <ord> <ord>   <dbl> <dbl> <int> <dbl> <dbl> <dbl>
##  1 0.23  Ideal     E     SI2      61.5    55   326  3.95  3.98  2.43
##  2 0.21  Premium   E     SI1      59.8    61   326  3.89  3.84  2.31
##  3 0.23  Good      E     VS1      56.9    65   327  4.05  4.07  2.31
##  4 0.290 Premium   I     VS2      62.4    58   334  4.2   4.23  2.63
##  5 0.31  Good      J     SI2      63.3    58   335  4.34  4.35  2.75
##  6 0.24  Very Good J     VVS2     62.8    57   336  3.94  3.96  2.48
##  7 0.24  Very Good I     VVS1     62.3    57   336  3.95  3.98  2.47
##  8 0.26  Very Good H     SI1      61.9    55   337  4.07  4.11  2.53
##  9 0.22  Fair      E     VS2      65.1    61   337  3.87  3.78  2.49
## 10 0.23  Very Good H     VS1      59.4    61   338  4     4.05  2.39
## #  with 53,930 more rows
…
